%YAML 1.1
%TAG !u! tag:unity3d.com,2011:
--- !u!78 &1
TagManager:
  serializedVersion: 2
  tags:
  - WallRun
  - Stair
  - Climb
  - Fly
  - FollowCamera
  - CinemachineTarget
  - Animal
  - Water
  - Probe
  - nop
  layers:
  - Default
  - TransparentFX
  - Ignore Raycast
  - AI
  - Water
  - UI
  - 
  - 
  - 
  - 
  - 
  - 
  - 
  - 
  - 
  - 
  - 
  - 
  - 
  - 
  - Animal
  - 
  - 
  - Enemy
  - 
  - 
  - 
  - 
  - 
  - 
  - Item
  - 
  m_SortingLayers:
  - name: Default
    uniqueID: 0
    locked: 0
