%YAML 1.1
%TAG !u! tag:unity3d.com,2011:
--- !u!1 &1000012657913352
GameObject:
  m_ObjectHideFlags: 0
  m_CorrespondingSourceObject: {fileID: 0}
  m_PrefabInstance: {fileID: 0}
  m_PrefabAsset: {fileID: 0}
  serializedVersion: 6
  m_Component:
  - component: {fileID: 4000010555351770}
  - component: {fileID: 108000011707700854}
  - component: {fileID: 114000013750229782}
  m_Layer: 0
  m_Name: light
  m_TagString: Untagged
  m_Icon: {fileID: 0}
  m_NavMeshLayer: 0
  m_StaticEditorFlags: 0
  m_IsActive: 1
--- !u!4 &4000010555351770
Transform:
  m_ObjectHideFlags: 0
  m_CorrespondingSourceObject: {fileID: 0}
  m_PrefabInstance: {fileID: 0}
  m_PrefabAsset: {fileID: 0}
  m_GameObject: {fileID: 1000012657913352}
  m_LocalRotation: {x: 0.3987885, y: 0, z: 0, w: 0.9170429}
  m_LocalPosition: {x: -0.5942156, y: 5.8621025, z: 0.74896145}
  m_LocalScale: {x: 1, y: 1, z: 1}
  m_Children: []
  m_Father: {fileID: 0}
  m_RootOrder: 0
  m_LocalEulerAnglesHint: {x: 0, y: 0, z: 0}
--- !u!108 &108000011707700854
Light:
  m_ObjectHideFlags: 0
  m_CorrespondingSourceObject: {fileID: 0}
  m_PrefabInstance: {fileID: 0}
  m_PrefabAsset: {fileID: 0}
  m_GameObject: {fileID: 1000012657913352}
  m_Enabled: 1
  serializedVersion: 10
  m_Type: 0
  m_Shape: 0
  m_Color: {r: 1, g: 1, b: 1, a: 1}
  m_Intensity: 1.6476816
  m_Range: 20.461567
  m_SpotAngle: 70.94337
  m_InnerSpotAngle: 54.23793
  m_CookieSize: 10
  m_Shadows:
    m_Type: 1
    m_Resolution: -1
    m_CustomResolution: -1
    m_Strength: 1
    m_Bias: 0.05
    m_NormalBias: 0.4
    m_NearPlane: 0.2
    m_CullingMatrixOverride:
      e00: 1
      e01: 0
      e02: 0
      e03: 0
      e10: 0
      e11: 1
      e12: 0
      e13: 0
      e20: 0
      e21: 0
      e22: 1
      e23: 0
      e30: 0
      e31: 0
      e32: 0
      e33: 1
    m_UseCullingMatrixOverride: 0
  m_Cookie: {fileID: 0}
  m_DrawHalo: 0
  m_Flare: {fileID: 0}
  m_RenderMode: 0
  m_CullingMask:
    serializedVersion: 2
    m_Bits: 4294967295
  m_RenderingLayerMask: 1
  m_Lightmapping: 1
  m_LightShadowCasterMode: 0
  m_AreaSize: {x: 1, y: 1}
  m_BounceIntensity: 1
  m_ColorTemperature: 6570
  m_UseColorTemperature: 0
  m_BoundingSphereOverride: {x: 0, y: 0, z: 0, w: 0}
  m_UseBoundingSphereOverride: 0
  m_UseViewFrustumForShadowCasterCull: 1
  m_ShadowRadius: 0
  m_ShadowAngle: 0
--- !u!114 &114000013750229782
MonoBehaviour:
  m_ObjectHideFlags: 0
  m_CorrespondingSourceObject: {fileID: 0}
  m_PrefabInstance: {fileID: 0}
  m_PrefabAsset: {fileID: 0}
  m_GameObject: {fileID: 1000012657913352}
  m_Enabled: 1
  m_EditorHideFlags: 0
  m_Script: {fileID: 11500000, guid: 0109504c2f6a31b4498a8fd6a490584a, type: 3}
  m_Name: 
  m_EditorClassIdentifier: 
  m_ShadowmapMode: 0
  m_Cameras:
  - {fileID: 0}
  m_CurrentCamera: {fileID: 0}
  m_Size: {x: 10, y: 10, z: 20}
  m_SpotNear: 0.05
  m_SpotFar: 1
  m_CullingMask:
    serializedVersion: 2
    m_Bits: 4294967295
  m_ColorFilterMask:
    serializedVersion: 2
    m_Bits: 0
  m_Brightness: 2.75
  m_BrightnessColored: 5
  m_Extinction: 0.44
  m_MinDistFromCamera: 0
  m_ShadowmapRes: 1024
  m_DepthShader: {fileID: 4800000, guid: 7e188a1e08ecfae4785bed08b1013219, type: 3}
  m_ColorFilterShader: {fileID: 4800000, guid: 78da0b5fc3a6e8a469d047d71187e7ef, type: 3}
  m_Colored: 0
  m_ColorBalance: 1
  m_EpipolarLines: 512
  m_EpipolarSamples: 512
  m_CoordShader: {fileID: 4800000, guid: 170533b360a07f945b98b5d9d11bff19, type: 3}
  m_DepthBreaksShader: {fileID: 4800000, guid: 8675ad07e6cda494d977506a7a2a8fbd, type: 3}
  m_RaymarchShader: {fileID: 4800000, guid: 8b94af9deac0e2d4e9523f6090a3e61e, type: 3}
  m_InterpolateAlongRaysShader: {fileID: 4800000, guid: b4040e961c997484e824ff979a17c3c0,
    type: 3}
  m_SamplePositionsShader: {fileID: 4800000, guid: 328e45223da3ee24a9b9bc2020d76aa4,
    type: 3}
  m_FinalInterpolationShader: {fileID: 4800000, guid: 3fe6f8dd2066bc741806972899aa82f6,
    type: 3}
  m_DepthThreshold: 0.5
  m_InterpolationStep: 32
  m_ShowSamples: 0
  m_ShowInterpolatedSamples: 0
  m_ShowSamplesBackgroundFade: 0.732
  m_AttenuationCurveOn: 0
  m_AttenuationCurve:
    serializedVersion: 2
    m_Curve:
    - serializedVersion: 3
      time: 0
      value: 1
      inSlope: 0
      outSlope: 0
      tangentMode: 0
      weightedMode: 0
      inWeight: 0.33333334
      outWeight: 0.33333334
    - serializedVersion: 3
      time: 1
      value: 1
      inSlope: 0
      outSlope: 0
      tangentMode: 0
      weightedMode: 0
      inWeight: 0.33333334
      outWeight: 0.33333334
    m_PreInfinity: 2
    m_PostInfinity: 2
    m_RotationOrder: 4
