%YAML 1.1
%TAG !u! tag:unity3d.com,2011:
--- !u!162 &1
EditorUserSettings:
  m_ObjectHideFlags: 0
  serializedVersion: 4
  m_ConfigSettings:
    RecentlyUsedSceneGuid-0:
      value: 56030703575450030f5f0f7740700844144e1d787c717532292a4d30e7b4313d
      flags: 0
    RecentlyUsedSceneGuid-1:
      value: 07030103040c5f5e54565a7a41740a4410154b7c747174697a78186bb5e13239
      flags: 0
    RecentlyUsedSceneGuid-2:
      value: 5a0355545c050c0f59580f7b16715e44104e4f287b7925347f2a4f30e0b1603e
      flags: 0
    RecentlyUsedSceneGuid-3:
      value: 555402510151500908585c7040710e4444154a7e2d7a716528714c61b7b6606b
      flags: 0
    RecentlyUsedSceneGuid-4:
      value: 5402035155015a595d5b5b7340225c4443164c7f797f706375701c6be1b83569
      flags: 0
    RecentlyUsedSceneGuid-5:
      value: 500600575502590e0b5e0e774072594412154e7e792d70322e701967b3e36460
      flags: 0
    RecentlyUsedSceneGuid-6:
      value: 520652005d00590c09565c2444700e4447154a28287876347a704d6be0e43069
      flags: 0
    RecentlyUsedSceneGuid-7:
      value: 53570304530c5a035f0a08721321094414161c2e7f7a273429794965b5b5366c
      flags: 0
    RecentlyUsedSceneGuid-8:
      value: 510255545d515b580b0b547b14250b44434f4b2b2d7b22672b7f4f32b3b03061
      flags: 0
    RecentlyUsedSceneGuid-9:
      value: 54530551540d5c020b5a5b2442715b441315412f7870756574781e66b6b0663d
      flags: 0
    RecentlyUsedScenePath-0:
      value: 22424703114646760c020e2702301f31181e152b3821293e3e663e3cefed3b36adc625fae22e2c731b03fc39440d023afc0f1a44c6040612512fef1a51d91f0114d60c8b0fc61608d2
      flags: 0
    RecentlyUsedScenePath-1:
      value: 22424703114646680c031c2e1530103f0612160b0568133e243d047cb2ae6576b4a815e1e62e180c0d4dcc34052a260fc64a3a0afb1b060e5f1bf30705e6
      flags: 0
    RecentlyUsedScenePath-2:
      value: 2242470311464669080f083b202f5e091305352f341b32313f3d1821c3f3273df6f479dae43f31392a4ddf300527062dfd1f070fc9393a265f1bf30705e6
      flags: 0
    RecentlyUsedScenePath-3:
      value: 2242470311464669080f0f36250a10231512162f3f67153120391136d1e33136e7a923e7ee2e26
      flags: 0
    RecentlyUsedScenePath-4:
      value: 224247031146467a030701231c637c1f18030a25202423226d0b1c20ebe3740ce7f422a9b5742a323016f6
      flags: 0
    RecentlyUsedScenePath-5:
      value: 22424703114646680e0b0227036c731f17130c2f3f3c66032e2c1336acf53a31f6fe
      flags: 0
    RecentlyUsedScenePath-6:
      value: 224247031146466b011b0b2b1e30102213161c336c182a31342c0f73cfe57b1dfae63bf9eb3f2c730b17e1280d33047fd7120806e6070f44231bf31a18f2153609c415d516cd5109c51008d7
      flags: 0
    RecentlyUsedScenePath-7:
      value: 22424703114646760c020e2702301f31181e152b3821293e3e663c3debed3534a2c439e7f32830303507fd73557e4c7fd60f0404e5445b4b5c4ecd0210e637011ed016c15ae00a11ca175c869f5d9ca3f0cec0efcae5e6d49791b5fcfde4f7
      flags: 0
    RecentlyUsedScenePath-8:
      value: 22424703114646680e0b0227036c68151430340f34292b20212c5326ece92021
      flags: 0
    RecentlyUsedScenePath-9:
      value: 224247031146466f283d380b3e046d203b590d24253c3f
      flags: 0
    vcSharedLogLevel:
      value: 0d5e400f0650
      flags: 0
  m_VCAutomaticAdd: 1
  m_VCDebugCom: 0
  m_VCDebugCmd: 0
  m_VCDebugOut: 0
  m_SemanticMergeMode: 2
  m_DesiredImportWorkerCount: 5
  m_StandbyImportWorkerCount: 2
  m_IdleImportWorkerShutdownDelay: 60000
  m_VCShowFailedCheckout: 1
  m_VCOverwriteFailedCheckoutAssets: 1
  m_VCProjectOverlayIcons: 1
  m_VCHierarchyOverlayIcons: 1
  m_VCOtherOverlayIcons: 1
  m_VCAllowAsyncUpdate: 1
  m_ArtifactGarbageCollection: 1
